('C:\\Users\\jvalero\\Documents\\sinapsisapp\\dist\\main.exe',
 False,
 False,
 False,
 'Images\\SinapsisIcon.ico',
 None,
 False,
 False,
 '<?xml version="1.0" encoding="UTF-8" standalone="yes"?><assembly manifestVersion="1.0" xmlns="urn:schemas-microsoft-com:asm.v1"><assemblyIdentity name="main" processorArchitecture="x86" type="win32" version="1.0.0.0"/><dependency><dependentAssembly><assemblyIdentity language="*" name="Microsoft.Windows.Common-Controls" processorArchitecture="*" publicKeyToken="6595b64144ccf1df" type="win32" version="6.0.0.0"/><compatibility xmlns="urn:schemas-microsoft-com:compatibility.v1"/></dependentAssembly></dependency><compatibility xmlns="urn:schemas-microsoft-com:compatibility.v1"><application><supportedOS Id="{e2011457-1546-43c5-a5fe-008deee3d3f0}"/><supportedOS Id="{35138b9a-5d96-4fbd-8e2d-a2440225f93a}"/><supportedOS Id="{4a2f28e3-53b9-4441-ba9c-d69d4a4a6e38}"/><supportedOS Id="{1f676c76-80e1-4239-95bb-83d0f6d0da78}"/><supportedOS Id="{8e0f7a12-bfb3-4fe8-b9a5-48fd50a15a9a}"/></application></compatibility></assembly>',
 True,
 'main.pkg',
 [('PYZ-00.pyz',
   'C:\\Users\\jvalero\\Documents\\sinapsisapp\\build\\main\\PYZ-00.pyz',
   'PYZ'),
  ('struct', 'c:\\users\\jvalero\\documents\\env\\lib\\struct.pyo', 'PYMODULE'),
  ('pyimod01_os_path',
   'c:\\users\\jvalero\\documents\\env\\lib\\site-packages\\PyInstaller\\loader\\pyimod01_os_path.pyc',
   'PYMODULE'),
  ('pyimod02_archive',
   'c:\\users\\jvalero\\documents\\env\\lib\\site-packages\\PyInstaller\\loader\\pyimod02_archive.pyc',
   'PYMODULE'),
  ('pyimod03_importers',
   'c:\\users\\jvalero\\documents\\env\\lib\\site-packages\\PyInstaller\\loader\\pyimod03_importers.pyc',
   'PYMODULE'),
  ('pyiboot01_bootstrap',
   'c:\\users\\jvalero\\documents\\env\\lib\\site-packages\\PyInstaller\\loader\\pyiboot01_bootstrap.py',
   'PYSOURCE'),
  ('pyi_rth_pkgres',
   'c:\\users\\jvalero\\documents\\env\\lib\\site-packages\\PyInstaller\\loader\\rthooks\\pyi_rth_pkgres.py',
   'PYSOURCE'),
  ('pyi_rth_win32comgenpy',
   'c:\\users\\jvalero\\documents\\env\\lib\\site-packages\\PyInstaller\\loader\\rthooks\\pyi_rth_win32comgenpy.py',
   'PYSOURCE'),
  ('pyi_rth_multiprocessing',
   'c:\\users\\jvalero\\documents\\env\\lib\\site-packages\\PyInstaller\\loader\\rthooks\\pyi_rth_multiprocessing.py',
   'PYSOURCE'),
  ('pyi_rth_kivy',
   'c:\\users\\jvalero\\documents\\env\\lib\\site-packages\\PyInstaller\\loader\\rthooks\\pyi_rth_kivy.py',
   'PYSOURCE'),
  ('pyi_rth_gstreamer',
   'c:\\users\\jvalero\\documents\\env\\lib\\site-packages\\PyInstaller\\loader\\rthooks\\pyi_rth_gstreamer.py',
   'PYSOURCE'),
  ('main', 'C:\\Users\\jvalero\\Documents\\sinapsisapp\\main.py', 'PYSOURCE'),
  ('VCRUNTIME140.dll', 'C:\\Windows\\system32\\vcruntime140.dll', 'BINARY'),
  ('python37.dll',
   'c:\\users\\jvalero\\documents\\env\\scripts\\python37.dll',
   'BINARY'),
  ('Crypto\\Cipher\\_chacha20.cp37-win32.pyd',
   'c:\\users\\jvalero\\documents\\env\\lib\\site-packages\\Crypto\\Cipher\\_chacha20.cp37-win32.pyd',
   'BINARY'),
  ('Crypto\\Hash\\_ghash_portable.cp37-win32.pyd',
   'c:\\users\\jvalero\\documents\\env\\lib\\site-packages\\Crypto\\Hash\\_ghash_portable.cp37-win32.pyd',
   'BINARY'),
  ('Crypto\\Hash\\_SHA256.cp37-win32.pyd',
   'c:\\users\\jvalero\\documents\\env\\lib\\site-packages\\Crypto\\Hash\\_SHA256.cp37-win32.pyd',
   'BINARY'),
  ('Crypto\\Cipher\\_raw_blowfish.cp37-win32.pyd',
   'c:\\users\\jvalero\\documents\\env\\lib\\site-packages\\Crypto\\Cipher\\_raw_blowfish.cp37-win32.pyd',
   'BINARY'),
  ('pythoncom37.dll',
   'c:\\users\\jvalero\\documents\\env\\lib\\site-packages\\pywin32_system32\\pythoncom37.dll',
   'BINARY'),
  ('Crypto\\Hash\\_BLAKE2s.cp37-win32.pyd',
   'c:\\users\\jvalero\\documents\\env\\lib\\site-packages\\Crypto\\Hash\\_BLAKE2s.cp37-win32.pyd',
   'BINARY'),
  ('Crypto\\Cipher\\_raw_cbc.cp37-win32.pyd',
   'c:\\users\\jvalero\\documents\\env\\lib\\site-packages\\Crypto\\Cipher\\_raw_cbc.cp37-win32.pyd',
   'BINARY'),
  ('Crypto\\Cipher\\_raw_arc2.cp37-win32.pyd',
   'c:\\users\\jvalero\\documents\\env\\lib\\site-packages\\Crypto\\Cipher\\_raw_arc2.cp37-win32.pyd',
   'BINARY'),
  ('Crypto\\Cipher\\_raw_aes.cp37-win32.pyd',
   'c:\\users\\jvalero\\documents\\env\\lib\\site-packages\\Crypto\\Cipher\\_raw_aes.cp37-win32.pyd',
   'BINARY'),
  ('Crypto\\Util\\_cpuid_c.cp37-win32.pyd',
   'c:\\users\\jvalero\\documents\\env\\lib\\site-packages\\Crypto\\Util\\_cpuid_c.cp37-win32.pyd',
   'BINARY'),
  ('Crypto\\Protocol\\_scrypt.cp37-win32.pyd',
   'c:\\users\\jvalero\\documents\\env\\lib\\site-packages\\Crypto\\Protocol\\_scrypt.cp37-win32.pyd',
   'BINARY'),
  ('Crypto\\Cipher\\_Salsa20.cp37-win32.pyd',
   'c:\\users\\jvalero\\documents\\env\\lib\\site-packages\\Crypto\\Cipher\\_Salsa20.cp37-win32.pyd',
   'BINARY'),
  ('pywintypes37.dll',
   'c:\\users\\jvalero\\documents\\env\\lib\\site-packages\\pywin32_system32\\pywintypes37.dll',
   'BINARY'),
  ('Crypto\\Util\\_strxor.cp37-win32.pyd',
   'c:\\users\\jvalero\\documents\\env\\lib\\site-packages\\Crypto\\Util\\_strxor.cp37-win32.pyd',
   'BINARY'),
  ('Crypto\\Cipher\\_raw_ctr.cp37-win32.pyd',
   'c:\\users\\jvalero\\documents\\env\\lib\\site-packages\\Crypto\\Cipher\\_raw_ctr.cp37-win32.pyd',
   'BINARY'),
  ('Crypto\\Hash\\_poly1305.cp37-win32.pyd',
   'c:\\users\\jvalero\\documents\\env\\lib\\site-packages\\Crypto\\Hash\\_poly1305.cp37-win32.pyd',
   'BINARY'),
  ('Crypto\\Hash\\_SHA1.cp37-win32.pyd',
   'c:\\users\\jvalero\\documents\\env\\lib\\site-packages\\Crypto\\Hash\\_SHA1.cp37-win32.pyd',
   'BINARY'),
  ('Crypto\\Cipher\\_raw_des.cp37-win32.pyd',
   'c:\\users\\jvalero\\documents\\env\\lib\\site-packages\\Crypto\\Cipher\\_raw_des.cp37-win32.pyd',
   'BINARY'),
  ('Crypto\\Cipher\\_raw_ecb.cp37-win32.pyd',
   'c:\\users\\jvalero\\documents\\env\\lib\\site-packages\\Crypto\\Cipher\\_raw_ecb.cp37-win32.pyd',
   'BINARY'),
  ('Crypto\\Math\\_modexp.cp37-win32.pyd',
   'c:\\users\\jvalero\\documents\\env\\lib\\site-packages\\Crypto\\Math\\_modexp.cp37-win32.pyd',
   'BINARY'),
  ('Crypto\\Cipher\\_raw_cfb.cp37-win32.pyd',
   'c:\\users\\jvalero\\documents\\env\\lib\\site-packages\\Crypto\\Cipher\\_raw_cfb.cp37-win32.pyd',
   'BINARY'),
  ('Crypto\\Hash\\_MD2.cp37-win32.pyd',
   'c:\\users\\jvalero\\documents\\env\\lib\\site-packages\\Crypto\\Hash\\_MD2.cp37-win32.pyd',
   'BINARY'),
  ('Crypto\\Hash\\_ghash_clmul.cp37-win32.pyd',
   'c:\\users\\jvalero\\documents\\env\\lib\\site-packages\\Crypto\\Hash\\_ghash_clmul.cp37-win32.pyd',
   'BINARY'),
  ('Crypto\\Cipher\\_raw_ofb.cp37-win32.pyd',
   'c:\\users\\jvalero\\documents\\env\\lib\\site-packages\\Crypto\\Cipher\\_raw_ofb.cp37-win32.pyd',
   'BINARY'),
  ('Crypto\\Cipher\\_raw_cast.cp37-win32.pyd',
   'c:\\users\\jvalero\\documents\\env\\lib\\site-packages\\Crypto\\Cipher\\_raw_cast.cp37-win32.pyd',
   'BINARY'),
  ('Crypto\\Cipher\\_ARC4.cp37-win32.pyd',
   'c:\\users\\jvalero\\documents\\env\\lib\\site-packages\\Crypto\\Cipher\\_ARC4.cp37-win32.pyd',
   'BINARY'),
  ('Crypto\\Hash\\_MD4.cp37-win32.pyd',
   'c:\\users\\jvalero\\documents\\env\\lib\\site-packages\\Crypto\\Hash\\_MD4.cp37-win32.pyd',
   'BINARY'),
  ('Crypto\\Hash\\_SHA512.cp37-win32.pyd',
   'c:\\users\\jvalero\\documents\\env\\lib\\site-packages\\Crypto\\Hash\\_SHA512.cp37-win32.pyd',
   'BINARY'),
  ('Crypto\\Hash\\_SHA384.cp37-win32.pyd',
   'c:\\users\\jvalero\\documents\\env\\lib\\site-packages\\Crypto\\Hash\\_SHA384.cp37-win32.pyd',
   'BINARY'),
  ('Crypto\\Hash\\_MD5.cp37-win32.pyd',
   'c:\\users\\jvalero\\documents\\env\\lib\\site-packages\\Crypto\\Hash\\_MD5.cp37-win32.pyd',
   'BINARY'),
  ('Crypto\\Hash\\_BLAKE2b.cp37-win32.pyd',
   'c:\\users\\jvalero\\documents\\env\\lib\\site-packages\\Crypto\\Hash\\_BLAKE2b.cp37-win32.pyd',
   'BINARY'),
  ('Crypto\\Cipher\\_raw_aesni.cp37-win32.pyd',
   'c:\\users\\jvalero\\documents\\env\\lib\\site-packages\\Crypto\\Cipher\\_raw_aesni.cp37-win32.pyd',
   'BINARY'),
  ('Crypto\\Hash\\_keccak.cp37-win32.pyd',
   'c:\\users\\jvalero\\documents\\env\\lib\\site-packages\\Crypto\\Hash\\_keccak.cp37-win32.pyd',
   'BINARY'),
  ('Crypto\\Cipher\\_raw_des3.cp37-win32.pyd',
   'c:\\users\\jvalero\\documents\\env\\lib\\site-packages\\Crypto\\Cipher\\_raw_des3.cp37-win32.pyd',
   'BINARY'),
  ('Crypto\\Hash\\_SHA224.cp37-win32.pyd',
   'c:\\users\\jvalero\\documents\\env\\lib\\site-packages\\Crypto\\Hash\\_SHA224.cp37-win32.pyd',
   'BINARY'),
  ('Crypto\\Cipher\\_raw_ocb.cp37-win32.pyd',
   'c:\\users\\jvalero\\documents\\env\\lib\\site-packages\\Crypto\\Cipher\\_raw_ocb.cp37-win32.pyd',
   'BINARY'),
  ('Crypto\\Hash\\_RIPEMD160.cp37-win32.pyd',
   'c:\\users\\jvalero\\documents\\env\\lib\\site-packages\\Crypto\\Hash\\_RIPEMD160.cp37-win32.pyd',
   'BINARY'),
  ('_decimal',
   'c:\\users\\jvalero\\appdata\\local\\programs\\python\\python37-32\\DLLs\\_decimal.pyd',
   'EXTENSION'),
  ('_ctypes',
   'c:\\users\\jvalero\\appdata\\local\\programs\\python\\python37-32\\DLLs\\_ctypes.pyd',
   'EXTENSION'),
  ('_queue',
   'c:\\users\\jvalero\\appdata\\local\\programs\\python\\python37-32\\DLLs\\_queue.pyd',
   'EXTENSION'),
  ('_multiprocessing',
   'c:\\users\\jvalero\\appdata\\local\\programs\\python\\python37-32\\DLLs\\_multiprocessing.pyd',
   'EXTENSION'),
  ('win32trace',
   'c:\\users\\jvalero\\documents\\env\\lib\\site-packages\\win32\\win32trace.pyd',
   'EXTENSION'),
  ('win32ui',
   'c:\\users\\jvalero\\documents\\env\\lib\\site-packages\\Pythonwin\\win32ui.pyd',
   'EXTENSION'),
  ('_win32sysloader',
   'c:\\users\\jvalero\\documents\\env\\lib\\site-packages\\win32\\_win32sysloader.pyd',
   'EXTENSION'),
  ('win32wnet',
   'c:\\users\\jvalero\\documents\\env\\lib\\site-packages\\win32\\win32wnet.pyd',
   'EXTENSION'),
  ('win32com.shell.shell',
   'c:\\users\\jvalero\\documents\\env\\lib\\site-packages\\win32comext\\shell\\shell.pyd',
   'EXTENSION'),
  ('_cffi_backend',
   'c:\\users\\jvalero\\documents\\env\\lib\\site-packages\\_cffi_backend.cp37-win32.pyd',
   'EXTENSION'),
  ('_ssl',
   'c:\\users\\jvalero\\appdata\\local\\programs\\python\\python37-32\\DLLs\\_ssl.pyd',
   'EXTENSION'),
  ('pyexpat',
   'c:\\users\\jvalero\\appdata\\local\\programs\\python\\python37-32\\DLLs\\pyexpat.pyd',
   'EXTENSION'),
  ('_hashlib',
   'c:\\users\\jvalero\\appdata\\local\\programs\\python\\python37-32\\DLLs\\_hashlib.pyd',
   'EXTENSION'),
  ('_lzma',
   'c:\\users\\jvalero\\appdata\\local\\programs\\python\\python37-32\\DLLs\\_lzma.pyd',
   'EXTENSION'),
  ('_socket',
   'c:\\users\\jvalero\\appdata\\local\\programs\\python\\python37-32\\DLLs\\_socket.pyd',
   'EXTENSION'),
  ('unicodedata',
   'c:\\users\\jvalero\\appdata\\local\\programs\\python\\python37-32\\DLLs\\unicodedata.pyd',
   'EXTENSION'),
  ('_bz2',
   'c:\\users\\jvalero\\appdata\\local\\programs\\python\\python37-32\\DLLs\\_bz2.pyd',
   'EXTENSION'),
  ('select',
   'c:\\users\\jvalero\\appdata\\local\\programs\\python\\python37-32\\DLLs\\select.pyd',
   'EXTENSION'),
  ('cryptography.hazmat.bindings._openssl',
   'c:\\users\\jvalero\\documents\\env\\lib\\site-packages\\cryptography\\hazmat\\bindings\\_openssl.cp37-win32.pyd',
   'EXTENSION'),
  ('cryptography.hazmat.bindings._constant_time',
   'c:\\users\\jvalero\\documents\\env\\lib\\site-packages\\cryptography\\hazmat\\bindings\\_constant_time.cp37-win32.pyd',
   'EXTENSION'),
  ('cryptography.hazmat.bindings._padding',
   'c:\\users\\jvalero\\documents\\env\\lib\\site-packages\\cryptography\\hazmat\\bindings\\_padding.cp37-win32.pyd',
   'EXTENSION'),
  ('nacl._sodium',
   'c:\\users\\jvalero\\documents\\env\\lib\\site-packages\\nacl\\_sodium.cp37-win32.pyd',
   'EXTENSION'),
  ('bcrypt._bcrypt',
   'c:\\users\\jvalero\\documents\\env\\lib\\site-packages\\bcrypt\\_bcrypt.cp37-win32.pyd',
   'EXTENSION'),
  ('win32security',
   'c:\\users\\jvalero\\documents\\env\\lib\\site-packages\\win32\\win32security.pyd',
   'EXTENSION'),
  ('psycopg2._psycopg',
   'c:\\users\\jvalero\\documents\\env\\lib\\site-packages\\psycopg2\\_psycopg.cp37-win32.pyd',
   'EXTENSION'),
  ('kivy.properties',
   'c:\\users\\jvalero\\documents\\env\\lib\\site-packages\\kivy\\properties.cp37-win32.pyd',
   'EXTENSION'),
  ('kivy.core.image._img_sdl2',
   'c:\\users\\jvalero\\documents\\env\\lib\\site-packages\\kivy\\core\\image\\_img_sdl2.cp37-win32.pyd',
   'EXTENSION'),
  ('kivy.graphics.texture',
   'c:\\users\\jvalero\\documents\\env\\lib\\site-packages\\kivy\\graphics\\texture.cp37-win32.pyd',
   'EXTENSION'),
  ('kivy.graphics.scissor_instructions',
   'c:\\users\\jvalero\\documents\\env\\lib\\site-packages\\kivy\\graphics\\scissor_instructions.cp37-win32.pyd',
   'EXTENSION'),
  ('kivy.graphics.fbo',
   'c:\\users\\jvalero\\documents\\env\\lib\\site-packages\\kivy\\graphics\\fbo.cp37-win32.pyd',
   'EXTENSION'),
  ('kivy.graphics.gl_instructions',
   'c:\\users\\jvalero\\documents\\env\\lib\\site-packages\\kivy\\graphics\\gl_instructions.cp37-win32.pyd',
   'EXTENSION'),
  ('kivy.graphics.stencil_instructions',
   'c:\\users\\jvalero\\documents\\env\\lib\\site-packages\\kivy\\graphics\\stencil_instructions.cp37-win32.pyd',
   'EXTENSION'),
  ('kivy.graphics.vertex_instructions',
   'c:\\users\\jvalero\\documents\\env\\lib\\site-packages\\kivy\\graphics\\vertex_instructions.cp37-win32.pyd',
   'EXTENSION'),
  ('kivy.graphics.context_instructions',
   'c:\\users\\jvalero\\documents\\env\\lib\\site-packages\\kivy\\graphics\\context_instructions.cp37-win32.pyd',
   'EXTENSION'),
  ('kivy.graphics.instructions',
   'c:\\users\\jvalero\\documents\\env\\lib\\site-packages\\kivy\\graphics\\instructions.cp37-win32.pyd',
   'EXTENSION'),
  ('kivy._event',
   'c:\\users\\jvalero\\documents\\env\\lib\\site-packages\\kivy\\_event.cp37-win32.pyd',
   'EXTENSION'),
  ('kivy.weakproxy',
   'c:\\users\\jvalero\\documents\\env\\lib\\site-packages\\kivy\\weakproxy.cp37-win32.pyd',
   'EXTENSION'),
  ('pygame.joystick',
   'c:\\users\\jvalero\\documents\\env\\lib\\site-packages\\pygame\\joystick.cp37-win32.pyd',
   'EXTENSION'),
  ('pygame.imageext',
   'c:\\users\\jvalero\\documents\\env\\lib\\site-packages\\pygame\\imageext.cp37-win32.pyd',
   'EXTENSION'),
  ('pygame.fastevent',
   'c:\\users\\jvalero\\documents\\env\\lib\\site-packages\\pygame\\fastevent.cp37-win32.pyd',
   'EXTENSION'),
  ('pygame.scrap',
   'c:\\users\\jvalero\\documents\\env\\lib\\site-packages\\pygame\\scrap.cp37-win32.pyd',
   'EXTENSION'),
  ('pygame.mixer',
   'c:\\users\\jvalero\\documents\\env\\lib\\site-packages\\pygame\\mixer.cp37-win32.pyd',
   'EXTENSION'),
  ('pygame.mixer_music',
   'c:\\users\\jvalero\\documents\\env\\lib\\site-packages\\pygame\\mixer_music.cp37-win32.pyd',
   'EXTENSION'),
  ('_elementtree',
   'c:\\users\\jvalero\\appdata\\local\\programs\\python\\python37-32\\DLLs\\_elementtree.pyd',
   'EXTENSION'),
  ('pygame.font',
   'c:\\users\\jvalero\\documents\\env\\lib\\site-packages\\pygame\\font.cp37-win32.pyd',
   'EXTENSION'),
  ('pygame._freetype',
   'c:\\users\\jvalero\\documents\\env\\lib\\site-packages\\pygame\\_freetype.cp37-win32.pyd',
   'EXTENSION'),
  ('pygame.transform',
   'c:\\users\\jvalero\\documents\\env\\lib\\site-packages\\pygame\\transform.cp37-win32.pyd',
   'EXTENSION'),
  ('pygame.time',
   'c:\\users\\jvalero\\documents\\env\\lib\\site-packages\\pygame\\time.cp37-win32.pyd',
   'EXTENSION'),
  ('pygame.overlay',
   'c:\\users\\jvalero\\documents\\env\\lib\\site-packages\\pygame\\overlay.cp37-win32.pyd',
   'EXTENSION'),
  ('pygame.pixelarray',
   'c:\\users\\jvalero\\documents\\env\\lib\\site-packages\\pygame\\pixelarray.cp37-win32.pyd',
   'EXTENSION'),
  ('pygame.mask',
   'c:\\users\\jvalero\\documents\\env\\lib\\site-packages\\pygame\\mask.cp37-win32.pyd',
   'EXTENSION'),
  ('pygame.surface',
   'c:\\users\\jvalero\\documents\\env\\lib\\site-packages\\pygame\\surface.cp37-win32.pyd',
   'EXTENSION'),
  ('pygame.pixelcopy',
   'c:\\users\\jvalero\\documents\\env\\lib\\site-packages\\pygame\\pixelcopy.cp37-win32.pyd',
   'EXTENSION'),
  ('pygame.mouse',
   'c:\\users\\jvalero\\documents\\env\\lib\\site-packages\\pygame\\mouse.cp37-win32.pyd',
   'EXTENSION'),
  ('pygame.key',
   'c:\\users\\jvalero\\documents\\env\\lib\\site-packages\\pygame\\key.cp37-win32.pyd',
   'EXTENSION'),
  ('pygame.image',
   'c:\\users\\jvalero\\documents\\env\\lib\\site-packages\\pygame\\image.cp37-win32.pyd',
   'EXTENSION'),
  ('pygame.event',
   'c:\\users\\jvalero\\documents\\env\\lib\\site-packages\\pygame\\event.cp37-win32.pyd',
   'EXTENSION'),
  ('pygame.draw',
   'c:\\users\\jvalero\\documents\\env\\lib\\site-packages\\pygame\\draw.cp37-win32.pyd',
   'EXTENSION'),
  ('pygame.display',
   'c:\\users\\jvalero\\documents\\env\\lib\\site-packages\\pygame\\display.cp37-win32.pyd',
   'EXTENSION'),
  ('pygame.cdrom',
   'c:\\users\\jvalero\\documents\\env\\lib\\site-packages\\pygame\\cdrom.cp37-win32.pyd',
   'EXTENSION'),
  ('pygame.math',
   'c:\\users\\jvalero\\documents\\env\\lib\\site-packages\\pygame\\math.cp37-win32.pyd',
   'EXTENSION'),
  ('pygame.bufferproxy',
   'c:\\users\\jvalero\\documents\\env\\lib\\site-packages\\pygame\\bufferproxy.cp37-win32.pyd',
   'EXTENSION'),
  ('pygame.color',
   'c:\\users\\jvalero\\documents\\env\\lib\\site-packages\\pygame\\color.cp37-win32.pyd',
   'EXTENSION'),
  ('pygame.surflock',
   'c:\\users\\jvalero\\documents\\env\\lib\\site-packages\\pygame\\surflock.cp37-win32.pyd',
   'EXTENSION'),
  ('pygame.rwobject',
   'c:\\users\\jvalero\\documents\\env\\lib\\site-packages\\pygame\\rwobject.cp37-win32.pyd',
   'EXTENSION'),
  ('pygame.rect',
   'c:\\users\\jvalero\\documents\\env\\lib\\site-packages\\pygame\\rect.cp37-win32.pyd',
   'EXTENSION'),
  ('pygame.constants',
   'c:\\users\\jvalero\\documents\\env\\lib\\site-packages\\pygame\\constants.cp37-win32.pyd',
   'EXTENSION'),
  ('pygame.base',
   'c:\\users\\jvalero\\documents\\env\\lib\\site-packages\\pygame\\base.cp37-win32.pyd',
   'EXTENSION'),
  ('kivy.graphics.opengl',
   'c:\\users\\jvalero\\documents\\env\\lib\\site-packages\\kivy\\graphics\\opengl.cp37-win32.pyd',
   'EXTENSION'),
  ('kivy.graphics.context',
   'c:\\users\\jvalero\\documents\\env\\lib\\site-packages\\kivy\\graphics\\context.cp37-win32.pyd',
   'EXTENSION'),
  ('kivy.graphics.cgl',
   'c:\\users\\jvalero\\documents\\env\\lib\\site-packages\\kivy\\graphics\\cgl.cp37-win32.pyd',
   'EXTENSION'),
  ('kivy.graphics.opengl_utils',
   'c:\\users\\jvalero\\documents\\env\\lib\\site-packages\\kivy\\graphics\\opengl_utils.cp37-win32.pyd',
   'EXTENSION'),
  ('kivy.graphics.transformation',
   'c:\\users\\jvalero\\documents\\env\\lib\\site-packages\\kivy\\graphics\\transformation.cp37-win32.pyd',
   'EXTENSION'),
  ('kivy.core.text.text_layout',
   'c:\\users\\jvalero\\documents\\env\\lib\\site-packages\\kivy\\core\\text\\text_layout.cp37-win32.pyd',
   'EXTENSION'),
  ('kivy._clock',
   'c:\\users\\jvalero\\documents\\env\\lib\\site-packages\\kivy\\_clock.cp37-win32.pyd',
   'EXTENSION'),
  ('win32file',
   'c:\\users\\jvalero\\documents\\env\\lib\\site-packages\\win32\\win32file.pyd',
   'EXTENSION'),
  ('PIL._imagingft',
   'c:\\users\\jvalero\\documents\\env\\lib\\site-packages\\PIL\\_imagingft.cp37-win32.pyd',
   'EXTENSION'),
  ('kivy.core.window.window_info',
   'c:\\users\\jvalero\\documents\\env\\lib\\site-packages\\kivy\\core\\window\\window_info.cp37-win32.pyd',
   'EXTENSION'),
  ('kivy.graphics.svg',
   'c:\\users\\jvalero\\documents\\env\\lib\\site-packages\\kivy\\graphics\\svg.cp37-win32.pyd',
   'EXTENSION'),
  ('kivy.lib.gstplayer._gstplayer',
   'c:\\users\\jvalero\\documents\\env\\lib\\site-packages\\kivy\\lib\\gstplayer\\_gstplayer.cp37-win32.pyd',
   'EXTENSION'),
  ('kivy.graphics.cgl_backend.cgl_glew',
   'c:\\users\\jvalero\\documents\\env\\lib\\site-packages\\kivy\\graphics\\cgl_backend\\cgl_glew.cp37-win32.pyd',
   'EXTENSION'),
  ('kivy.core.clipboard._clipboard_sdl2',
   'c:\\users\\jvalero\\documents\\env\\lib\\site-packages\\kivy\\core\\clipboard\\_clipboard_sdl2.cp37-win32.pyd',
   'EXTENSION'),
  ('kivy.core.window._window_sdl2',
   'c:\\users\\jvalero\\documents\\env\\lib\\site-packages\\kivy\\core\\window\\_window_sdl2.cp37-win32.pyd',
   'EXTENSION'),
  ('kivy.core.audio.audio_sdl2',
   'c:\\users\\jvalero\\documents\\env\\lib\\site-packages\\kivy\\core\\audio\\audio_sdl2.cp37-win32.pyd',
   'EXTENSION'),
  ('kivy.graphics.cgl_backend.cgl_sdl2',
   'c:\\users\\jvalero\\documents\\env\\lib\\site-packages\\kivy\\graphics\\cgl_backend\\cgl_sdl2.cp37-win32.pyd',
   'EXTENSION'),
  ('win32gui',
   'c:\\users\\jvalero\\documents\\env\\lib\\site-packages\\win32\\win32gui.pyd',
   'EXTENSION'),
  ('kivy.graphics.vertex',
   'c:\\users\\jvalero\\documents\\env\\lib\\site-packages\\kivy\\graphics\\vertex.cp37-win32.pyd',
   'EXTENSION'),
  ('kivy.graphics.shader',
   'c:\\users\\jvalero\\documents\\env\\lib\\site-packages\\kivy\\graphics\\shader.cp37-win32.pyd',
   'EXTENSION'),
  ('kivy.graphics.cgl_backend.cgl_mock',
   'c:\\users\\jvalero\\documents\\env\\lib\\site-packages\\kivy\\graphics\\cgl_backend\\cgl_mock.cp37-win32.pyd',
   'EXTENSION'),
  ('kivy.core.text._text_sdl2',
   'c:\\users\\jvalero\\documents\\env\\lib\\site-packages\\kivy\\core\\text\\_text_sdl2.cp37-win32.pyd',
   'EXTENSION'),
  ('kivy.graphics.buffer',
   'c:\\users\\jvalero\\documents\\env\\lib\\site-packages\\kivy\\graphics\\buffer.cp37-win32.pyd',
   'EXTENSION'),
  ('kivy.graphics.cgl_backend.cgl_gl',
   'c:\\users\\jvalero\\documents\\env\\lib\\site-packages\\kivy\\graphics\\cgl_backend\\cgl_gl.cp37-win32.pyd',
   'EXTENSION'),
  ('kivy.graphics.cgl_backend.cgl_debug',
   'c:\\users\\jvalero\\documents\\env\\lib\\site-packages\\kivy\\graphics\\cgl_backend\\cgl_debug.cp37-win32.pyd',
   'EXTENSION'),
  ('kivy.graphics.vbo',
   'c:\\users\\jvalero\\documents\\env\\lib\\site-packages\\kivy\\graphics\\vbo.cp37-win32.pyd',
   'EXTENSION'),
  ('kivy.graphics.tesselator',
   'c:\\users\\jvalero\\documents\\env\\lib\\site-packages\\kivy\\graphics\\tesselator.cp37-win32.pyd',
   'EXTENSION'),
  ('kivy.graphics.compiler',
   'c:\\users\\jvalero\\documents\\env\\lib\\site-packages\\kivy\\graphics\\compiler.cp37-win32.pyd',
   'EXTENSION'),
  ('win32api',
   'c:\\users\\jvalero\\documents\\env\\lib\\site-packages\\win32\\win32api.pyd',
   'EXTENSION'),
  ('PIL._imagingtk',
   'c:\\users\\jvalero\\documents\\env\\lib\\site-packages\\PIL\\_imagingtk.cp37-win32.pyd',
   'EXTENSION'),
  ('PIL._webp',
   'c:\\users\\jvalero\\documents\\env\\lib\\site-packages\\PIL\\_webp.cp37-win32.pyd',
   'EXTENSION'),
  ('PIL._imaging',
   'c:\\users\\jvalero\\documents\\env\\lib\\site-packages\\PIL\\_imaging.cp37-win32.pyd',
   'EXTENSION'),
  ('mfc140u.dll',
   'c:\\users\\jvalero\\documents\\env\\lib\\site-packages\\Pythonwin\\mfc140u.dll',
   'BINARY'),
  ('libssl-1_1.dll',
   'c:\\users\\jvalero\\appdata\\local\\programs\\python\\python37-32\\DLLs\\libssl-1_1.dll',
   'BINARY'),
  ('libcrypto-1_1.dll',
   'c:\\users\\jvalero\\appdata\\local\\programs\\python\\python37-32\\DLLs\\libcrypto-1_1.dll',
   'BINARY'),
  ('SDL2.dll',
   'c:\\users\\jvalero\\documents\\env\\share\\sdl2\\bin\\sdl2.dll',
   'BINARY'),
  ('SDL2_image.dll',
   'c:\\users\\jvalero\\documents\\env\\share\\sdl2\\bin\\sdl2_image.dll',
   'BINARY'),
  ('SDL.dll',
   'c:\\users\\jvalero\\documents\\env\\lib\\site-packages\\pygame\\SDL.dll',
   'BINARY'),
  ('libjpeg-8.dll',
   'c:\\users\\jvalero\\documents\\env\\lib\\site-packages\\pygame\\libjpeg-8.dll',
   'BINARY'),
  ('libpng16-16.dll',
   'c:\\users\\jvalero\\documents\\env\\lib\\site-packages\\pygame\\libpng16-16.dll',
   'BINARY'),
  ('SDL_image.dll',
   'c:\\users\\jvalero\\documents\\env\\lib\\site-packages\\pygame\\SDL_image.dll',
   'BINARY'),
  ('SDL_mixer.dll',
   'c:\\users\\jvalero\\documents\\env\\lib\\site-packages\\pygame\\SDL_mixer.dll',
   'BINARY'),
  ('SDL_ttf.dll',
   'c:\\users\\jvalero\\documents\\env\\lib\\site-packages\\pygame\\SDL_ttf.dll',
   'BINARY'),
  ('libfreetype-6.dll',
   'c:\\users\\jvalero\\documents\\env\\lib\\site-packages\\pygame\\libfreetype-6.dll',
   'BINARY'),
  ('libgobject-2.0-0.dll',
   'c:\\users\\jvalero\\documents\\env\\share\\gstreamer\\bin\\libgobject-2.0-0.dll',
   'BINARY'),
  ('libglib-2.0-0.dll',
   'c:\\users\\jvalero\\documents\\env\\share\\gstreamer\\bin\\libglib-2.0-0.dll',
   'BINARY'),
  ('libgstreamer-1.0-0.dll',
   'c:\\users\\jvalero\\documents\\env\\share\\gstreamer\\bin\\libgstreamer-1.0-0.dll',
   'BINARY'),
  ('glew32.dll',
   'c:\\users\\jvalero\\documents\\env\\share\\glew\\bin\\glew32.dll',
   'BINARY'),
  ('SDL2_mixer.dll',
   'c:\\users\\jvalero\\documents\\env\\share\\sdl2\\bin\\sdl2_mixer.dll',
   'BINARY'),
  ('SDL2_ttf.dll',
   'c:\\users\\jvalero\\documents\\env\\share\\sdl2\\bin\\sdl2_ttf.dll',
   'BINARY'),
  ('libgcc_s_sjlj-1.dll',
   'c:\\users\\jvalero\\documents\\env\\lib\\site-packages\\pygame\\libgcc_s_sjlj-1.dll',
   'BINARY'),
  ('zlib1.dll',
   'c:\\users\\jvalero\\documents\\env\\lib\\site-packages\\pygame\\zlib1.dll',
   'BINARY'),
  ('libwebp-5.dll',
   'c:\\users\\jvalero\\documents\\env\\lib\\site-packages\\pygame\\libwebp-5.dll',
   'BINARY'),
  ('libtiff-5.dll',
   'c:\\users\\jvalero\\documents\\env\\lib\\site-packages\\pygame\\libtiff-5.dll',
   'BINARY'),
  ('libmpg123-0.dll',
   'c:\\users\\jvalero\\documents\\env\\lib\\site-packages\\pygame\\libmpg123-0.dll',
   'BINARY'),
  ('libvorbisfile-3.dll',
   'c:\\users\\jvalero\\documents\\env\\lib\\site-packages\\pygame\\libvorbisfile-3.dll',
   'BINARY'),
  ('libffi-7.dll',
   'c:\\users\\jvalero\\documents\\env\\share\\gstreamer\\bin\\libffi-7.dll',
   'BINARY'),
  ('libintl-8.dll',
   'c:\\users\\jvalero\\documents\\env\\share\\gstreamer\\bin\\libintl-8.dll',
   'BINARY'),
  ('libgmodule-2.0-0.dll',
   'c:\\users\\jvalero\\documents\\env\\share\\gstreamer\\bin\\libgmodule-2.0-0.dll',
   'BINARY'),
  ('libwinpthread-1.dll',
   'c:\\users\\jvalero\\documents\\env\\share\\gstreamer\\bin\\libwinpthread-1.dll',
   'BINARY'),
  ('libogg-0.dll',
   'c:\\users\\jvalero\\documents\\env\\lib\\site-packages\\pygame\\libogg-0.dll',
   'BINARY'),
  ('libvorbis-0.dll',
   'c:\\users\\jvalero\\documents\\env\\lib\\site-packages\\pygame\\libvorbis-0.dll',
   'BINARY'),
  ('base_library.zip',
   'C:\\Users\\jvalero\\Documents\\sinapsisapp\\build\\main\\base_library.zip',
   'DATA'),
  ('kivy_install\\modules\\monitor.py',
   'c:\\users\\jvalero\\documents\\env\\lib\\site-packages\\kivy\\modules\\monitor.py',
   'DATA'),
  ('docutils\\writers\\s5_html\\themes\\small-black\\__base__',
   'c:\\users\\jvalero\\documents\\env\\lib\\site-packages\\docutils\\writers\\s5_html\\themes\\small-black\\__base__',
   'DATA'),
  ('docutils\\parsers\\rst\\include\\isoamso.txt',
   'c:\\users\\jvalero\\documents\\env\\lib\\site-packages\\docutils\\parsers\\rst\\include\\isoamso.txt',
   'DATA'),
  ('kivy_install\\data\\logo\\kivy-icon-48.png',
   'c:\\users\\jvalero\\documents\\env\\lib\\site-packages\\kivy\\data\\logo\\kivy-icon-48.png',
   'DATA'),
  ('kivy_install\\data\\images\\image-loading.gif',
   'c:\\users\\jvalero\\documents\\env\\lib\\site-packages\\kivy\\data\\images\\image-loading.gif',
   'DATA'),
  ('docutils\\parsers\\rst\\include\\isodia.txt',
   'c:\\users\\jvalero\\documents\\env\\lib\\site-packages\\docutils\\parsers\\rst\\include\\isodia.txt',
   'DATA'),
  ('kivy_install\\data\\style.kv',
   'c:\\users\\jvalero\\documents\\env\\lib\\site-packages\\kivy\\data\\style.kv',
   'DATA'),
  ('kivy_install\\modules\\__pycache__\\touchring.cpython-37.pyc',
   'c:\\users\\jvalero\\documents\\env\\lib\\site-packages\\kivy\\modules\\__pycache__\\touchring.cpython-37.pyc',
   'DATA'),
  ('cryptography-2.6.1-py3.7.egg-info\\AUTHORS.rst',
   'c:\\users\\jvalero\\documents\\env\\lib\\site-packages\\cryptography-2.6.1.dist-info\\AUTHORS.rst',
   'DATA'),
  ('kivy_install\\modules\\__pycache__\\_webdebugger.cpython-37.pyc',
   'c:\\users\\jvalero\\documents\\env\\lib\\site-packages\\kivy\\modules\\__pycache__\\_webdebugger.cpython-37.pyc',
   'DATA'),
  ('docutils\\parsers\\rst\\include\\isoamsn.txt',
   'c:\\users\\jvalero\\documents\\env\\lib\\site-packages\\docutils\\parsers\\rst\\include\\isoamsn.txt',
   'DATA'),
  ('docutils\\parsers\\rst\\include\\s5defs.txt',
   'c:\\users\\jvalero\\documents\\env\\lib\\site-packages\\docutils\\parsers\\rst\\include\\s5defs.txt',
   'DATA'),
  ('docutils\\writers\\html4css1\\html4css1.css',
   'c:\\users\\jvalero\\documents\\env\\lib\\site-packages\\docutils\\writers\\html4css1\\html4css1.css',
   'DATA'),
  ('kivy_install\\data\\logo\\kivy-icon-256.png',
   'c:\\users\\jvalero\\documents\\env\\lib\\site-packages\\kivy\\data\\logo\\kivy-icon-256.png',
   'DATA'),
  ('kivy_install\\data\\logo\\kivy-icon-64.png',
   'c:\\users\\jvalero\\documents\\env\\lib\\site-packages\\kivy\\data\\logo\\kivy-icon-64.png',
   'DATA'),
  ('docutils\\writers\\odf_odt\\styles.odt',
   'c:\\users\\jvalero\\documents\\env\\lib\\site-packages\\docutils\\writers\\odf_odt\\styles.odt',
   'DATA'),
  ('docutils\\writers\\s5_html\\themes\\big-white\\framing.css',
   'c:\\users\\jvalero\\documents\\env\\lib\\site-packages\\docutils\\writers\\s5_html\\themes\\big-white\\framing.css',
   'DATA'),
  ('docutils\\parsers\\rst\\include\\isomfrk-wide.txt',
   'c:\\users\\jvalero\\documents\\env\\lib\\site-packages\\docutils\\parsers\\rst\\include\\isomfrk-wide.txt',
   'DATA'),
  ('kivy_install\\modules\\recorder.py',
   'c:\\users\\jvalero\\documents\\env\\lib\\site-packages\\kivy\\modules\\recorder.py',
   'DATA'),
  ('docutils\\writers\\html5_polyglot\\math.css',
   'c:\\users\\jvalero\\documents\\env\\lib\\site-packages\\docutils\\writers\\html5_polyglot\\math.css',
   'DATA'),
  ('kivy_install\\data\\fonts\\RobotoMono-Regular.ttf',
   'c:\\users\\jvalero\\documents\\env\\lib\\site-packages\\kivy\\data\\fonts\\RobotoMono-Regular.ttf',
   'DATA'),
  ('kivy_install\\modules\\keybinding.py',
   'c:\\users\\jvalero\\documents\\env\\lib\\site-packages\\kivy\\modules\\keybinding.py',
   'DATA'),
  ('docutils\\parsers\\rst\\include\\isogrk1.txt',
   'c:\\users\\jvalero\\documents\\env\\lib\\site-packages\\docutils\\parsers\\rst\\include\\isogrk1.txt',
   'DATA'),
  ('docutils\\parsers\\rst\\include\\isomscr-wide.txt',
   'c:\\users\\jvalero\\documents\\env\\lib\\site-packages\\docutils\\parsers\\rst\\include\\isomscr-wide.txt',
   'DATA'),
  ('kivy_install\\modules\\__pycache__\\console.cpython-37.pyc',
   'c:\\users\\jvalero\\documents\\env\\lib\\site-packages\\kivy\\modules\\__pycache__\\console.cpython-37.pyc',
   'DATA'),
  ('docutils\\writers\\html5_polyglot\\minimal.css',
   'c:\\users\\jvalero\\documents\\env\\lib\\site-packages\\docutils\\writers\\html5_polyglot\\minimal.css',
   'DATA'),
  ('docutils\\parsers\\rst\\include\\isomopf.txt',
   'c:\\users\\jvalero\\documents\\env\\lib\\site-packages\\docutils\\parsers\\rst\\include\\isomopf.txt',
   'DATA'),
  ('certifi\\cacert.pem',
   'c:\\users\\jvalero\\documents\\env\\lib\\site-packages\\certifi\\cacert.pem',
   'DATA'),
  ('kivy_install\\data\\settings_kivy.json',
   'c:\\users\\jvalero\\documents\\env\\lib\\site-packages\\kivy\\data\\settings_kivy.json',
   'DATA'),
  ('kivy_install\\data\\keyboards\\de_CH.json',
   'c:\\users\\jvalero\\documents\\env\\lib\\site-packages\\kivy\\data\\keyboards\\de_CH.json',
   'DATA'),
  ('kivy_install\\data\\logo\\kivy-icon-128.png',
   'c:\\users\\jvalero\\documents\\env\\lib\\site-packages\\kivy\\data\\logo\\kivy-icon-128.png',
   'DATA'),
  ('docutils\\writers\\latex2e\\xelatex.tex',
   'c:\\users\\jvalero\\documents\\env\\lib\\site-packages\\docutils\\writers\\latex2e\\xelatex.tex',
   'DATA'),
  ('docutils\\writers\\html5_polyglot\\template.txt',
   'c:\\users\\jvalero\\documents\\env\\lib\\site-packages\\docutils\\writers\\html5_polyglot\\template.txt',
   'DATA'),
  ('docutils\\writers\\s5_html\\themes\\README.txt',
   'c:\\users\\jvalero\\documents\\env\\lib\\site-packages\\docutils\\writers\\s5_html\\themes\\README.txt',
   'DATA'),
  ('kivy_install\\data\\keyboards\\fr_CH.json',
   'c:\\users\\jvalero\\documents\\env\\lib\\site-packages\\kivy\\data\\keyboards\\fr_CH.json',
   'DATA'),
  ('docutils\\parsers\\rst\\include\\isogrk2.txt',
   'c:\\users\\jvalero\\documents\\env\\lib\\site-packages\\docutils\\parsers\\rst\\include\\isogrk2.txt',
   'DATA'),
  ('docutils\\writers\\s5_html\\themes\\default\\iepngfix.htc',
   'c:\\users\\jvalero\\documents\\env\\lib\\site-packages\\docutils\\writers\\s5_html\\themes\\default\\iepngfix.htc',
   'DATA'),
  ('kivy_install\\data\\keyboards\\en_US.json',
   'c:\\users\\jvalero\\documents\\env\\lib\\site-packages\\kivy\\data\\keyboards\\en_US.json',
   'DATA'),
  ('docutils\\writers\\s5_html\\themes\\big-black\\framing.css',
   'c:\\users\\jvalero\\documents\\env\\lib\\site-packages\\docutils\\writers\\s5_html\\themes\\big-black\\framing.css',
   'DATA'),
  ('docutils\\writers\\s5_html\\themes\\default\\pretty.css',
   'c:\\users\\jvalero\\documents\\env\\lib\\site-packages\\docutils\\writers\\s5_html\\themes\\default\\pretty.css',
   'DATA'),
  ('docutils\\writers\\pep_html\\pep.css',
   'c:\\users\\jvalero\\documents\\env\\lib\\site-packages\\docutils\\writers\\pep_html\\pep.css',
   'DATA'),
  ('kivy_install\\modules\\__pycache__\\recorder.cpython-37.pyc',
   'c:\\users\\jvalero\\documents\\env\\lib\\site-packages\\kivy\\modules\\__pycache__\\recorder.cpython-37.pyc',
   'DATA'),
  ('docutils\\writers\\s5_html\\themes\\medium-black\\pretty.css',
   'c:\\users\\jvalero\\documents\\env\\lib\\site-packages\\docutils\\writers\\s5_html\\themes\\medium-black\\pretty.css',
   'DATA'),
  ('docutils\\writers\\s5_html\\themes\\big-black\\pretty.css',
   'c:\\users\\jvalero\\documents\\env\\lib\\site-packages\\docutils\\writers\\s5_html\\themes\\big-black\\pretty.css',
   'DATA'),
  ('docutils\\writers\\s5_html\\themes\\small-white\\pretty.css',
   'c:\\users\\jvalero\\documents\\env\\lib\\site-packages\\docutils\\writers\\s5_html\\themes\\small-white\\pretty.css',
   'DATA'),
  ('cryptography-2.6.1-py3.7.egg-info\\LICENSE.BSD',
   'c:\\users\\jvalero\\documents\\env\\lib\\site-packages\\cryptography-2.6.1.dist-info\\LICENSE.BSD',
   'DATA'),
  ('docutils\\parsers\\rst\\include\\xhtml1-lat1.txt',
   'c:\\users\\jvalero\\documents\\env\\lib\\site-packages\\docutils\\parsers\\rst\\include\\xhtml1-lat1.txt',
   'DATA'),
  ('cryptography-2.6.1-py3.7.egg-info\\METADATA',
   'c:\\users\\jvalero\\documents\\env\\lib\\site-packages\\cryptography-2.6.1.dist-info\\METADATA',
   'DATA'),
  ('kivy_install\\data\\fonts\\Roboto-BoldItalic.ttf',
   'c:\\users\\jvalero\\documents\\env\\lib\\site-packages\\kivy\\data\\fonts\\Roboto-BoldItalic.ttf',
   'DATA'),
  ('docutils\\parsers\\rst\\include\\isogrk4-wide.txt',
   'c:\\users\\jvalero\\documents\\env\\lib\\site-packages\\docutils\\parsers\\rst\\include\\isogrk4-wide.txt',
   'DATA'),
  ('kivy_install\\data\\logo\\kivy-icon-32.png',
   'c:\\users\\jvalero\\documents\\env\\lib\\site-packages\\kivy\\data\\logo\\kivy-icon-32.png',
   'DATA'),
  ('kivy_install\\data\\keyboards\\azerty.json',
   'c:\\users\\jvalero\\documents\\env\\lib\\site-packages\\kivy\\data\\keyboards\\azerty.json',
   'DATA'),
  ('kivy_install\\data\\glsl\\default.png',
   'c:\\users\\jvalero\\documents\\env\\lib\\site-packages\\kivy\\data\\glsl\\default.png',
   'DATA'),
  ('docutils\\parsers\\rst\\include\\mmlextra-wide.txt',
   'c:\\users\\jvalero\\documents\\env\\lib\\site-packages\\docutils\\parsers\\rst\\include\\mmlextra-wide.txt',
   'DATA'),
  ('kivy_install\\modules\\console.py',
   'c:\\users\\jvalero\\documents\\env\\lib\\site-packages\\kivy\\modules\\console.py',
   'DATA'),
  ('docutils\\parsers\\rst\\include\\isomscr.txt',
   'c:\\users\\jvalero\\documents\\env\\lib\\site-packages\\docutils\\parsers\\rst\\include\\isomscr.txt',
   'DATA'),
  ('kivy_install\\data\\images\\testpattern.png',
   'c:\\users\\jvalero\\documents\\env\\lib\\site-packages\\kivy\\data\\images\\testpattern.png',
   'DATA'),
  ('docutils\\parsers\\rst\\include\\isolat1.txt',
   'c:\\users\\jvalero\\documents\\env\\lib\\site-packages\\docutils\\parsers\\rst\\include\\isolat1.txt',
   'DATA'),
  ('kivy_install\\data\\fonts\\Roboto-Bold.ttf',
   'c:\\users\\jvalero\\documents\\env\\lib\\site-packages\\kivy\\data\\fonts\\Roboto-Bold.ttf',
   'DATA'),
  ('cryptography-2.6.1-py3.7.egg-info\\WHEEL',
   'c:\\users\\jvalero\\documents\\env\\lib\\site-packages\\cryptography-2.6.1.dist-info\\WHEEL',
   'DATA'),
  ('docutils\\writers\\html4css1\\template.txt',
   'c:\\users\\jvalero\\documents\\env\\lib\\site-packages\\docutils\\writers\\html4css1\\template.txt',
   'DATA'),
  ('kivy_install\\data\\images\\defaulttheme-0.png',
   'c:\\users\\jvalero\\documents\\env\\lib\\site-packages\\kivy\\data\\images\\defaulttheme-0.png',
   'DATA'),
  ('kivy_install\\data\\glsl\\default.fs',
   'c:\\users\\jvalero\\documents\\env\\lib\\site-packages\\kivy\\data\\glsl\\default.fs',
   'DATA'),
  ('kivy_install\\modules\\joycursor.py',
   'c:\\users\\jvalero\\documents\\env\\lib\\site-packages\\kivy\\modules\\joycursor.py',
   'DATA'),
  ('kivy_install\\modules\\showborder.py',
   'c:\\users\\jvalero\\documents\\env\\lib\\site-packages\\kivy\\modules\\showborder.py',
   'DATA'),
  ('docutils\\parsers\\rst\\include\\isobox.txt',
   'c:\\users\\jvalero\\documents\\env\\lib\\site-packages\\docutils\\parsers\\rst\\include\\isobox.txt',
   'DATA'),
  ('kivy_install\\data\\logo\\kivy-icon-512.png',
   'c:\\users\\jvalero\\documents\\env\\lib\\site-packages\\kivy\\data\\logo\\kivy-icon-512.png',
   'DATA'),
  ('kivy_install\\data\\images\\background.jpg',
   'c:\\users\\jvalero\\documents\\env\\lib\\site-packages\\kivy\\data\\images\\background.jpg',
   'DATA'),
  ('kivy_install\\modules\\webdebugger.py',
   'c:\\users\\jvalero\\documents\\env\\lib\\site-packages\\kivy\\modules\\webdebugger.py',
   'DATA'),
  ('docutils\\writers\\s5_html\\themes\\small-white\\framing.css',
   'c:\\users\\jvalero\\documents\\env\\lib\\site-packages\\docutils\\writers\\s5_html\\themes\\small-white\\framing.css',
   'DATA'),
  ('docutils\\parsers\\rst\\include\\isocyr1.txt',
   'c:\\users\\jvalero\\documents\\env\\lib\\site-packages\\docutils\\parsers\\rst\\include\\isocyr1.txt',
   'DATA'),
  ('kivy_install\\data\\keyboards\\de.json',
   'c:\\users\\jvalero\\documents\\env\\lib\\site-packages\\kivy\\data\\keyboards\\de.json',
   'DATA'),
  ('docutils\\writers\\s5_html\\themes\\big-white\\pretty.css',
   'c:\\users\\jvalero\\documents\\env\\lib\\site-packages\\docutils\\writers\\s5_html\\themes\\big-white\\pretty.css',
   'DATA'),
  ('docutils\\parsers\\rst\\include\\mmlalias.txt',
   'c:\\users\\jvalero\\documents\\env\\lib\\site-packages\\docutils\\parsers\\rst\\include\\mmlalias.txt',
   'DATA'),
  ('kivy_install\\data\\glsl\\header.vs',
   'c:\\users\\jvalero\\documents\\env\\lib\\site-packages\\kivy\\data\\glsl\\header.vs',
   'DATA'),
  ('docutils\\parsers\\rst\\include\\isocyr2.txt',
   'c:\\users\\jvalero\\documents\\env\\lib\\site-packages\\docutils\\parsers\\rst\\include\\isocyr2.txt',
   'DATA'),
  ('docutils\\writers\\s5_html\\themes\\default\\print.css',
   'c:\\users\\jvalero\\documents\\env\\lib\\site-packages\\docutils\\writers\\s5_html\\themes\\default\\print.css',
   'DATA'),
  ('docutils\\writers\\pep_html\\template.txt',
   'c:\\users\\jvalero\\documents\\env\\lib\\site-packages\\docutils\\writers\\pep_html\\template.txt',
   'DATA'),
  ('docutils\\writers\\s5_html\\themes\\default\\outline.css',
   'c:\\users\\jvalero\\documents\\env\\lib\\site-packages\\docutils\\writers\\s5_html\\themes\\default\\outline.css',
   'DATA'),
  ('docutils\\writers\\s5_html\\themes\\small-black\\pretty.css',
   'c:\\users\\jvalero\\documents\\env\\lib\\site-packages\\docutils\\writers\\s5_html\\themes\\small-black\\pretty.css',
   'DATA'),
  ('kivy_install\\modules\\screen.py',
   'c:\\users\\jvalero\\documents\\env\\lib\\site-packages\\kivy\\modules\\screen.py',
   'DATA'),
  ('kivy_install\\modules\\__init__.py',
   'c:\\users\\jvalero\\documents\\env\\lib\\site-packages\\kivy\\modules\\__init__.py',
   'DATA'),
  ('cryptography-2.6.1-py3.7.egg-info\\INSTALLER',
   'c:\\users\\jvalero\\documents\\env\\lib\\site-packages\\cryptography-2.6.1.dist-info\\INSTALLER',
   'DATA'),
  ('Include\\pyconfig.h',
   'c:\\users\\jvalero\\documents\\env\\Include\\pyconfig.h',
   'DATA'),
  ('docutils\\parsers\\rst\\include\\xhtml1-special.txt',
   'c:\\users\\jvalero\\documents\\env\\lib\\site-packages\\docutils\\parsers\\rst\\include\\xhtml1-special.txt',
   'DATA'),
  ('docutils\\parsers\\rst\\include\\isotech.txt',
   'c:\\users\\jvalero\\documents\\env\\lib\\site-packages\\docutils\\parsers\\rst\\include\\isotech.txt',
   'DATA'),
  ('docutils\\writers\\s5_html\\themes\\medium-white\\pretty.css',
   'c:\\users\\jvalero\\documents\\env\\lib\\site-packages\\docutils\\writers\\s5_html\\themes\\medium-white\\pretty.css',
   'DATA'),
  ('docutils\\parsers\\rst\\include\\isoamsr.txt',
   'c:\\users\\jvalero\\documents\\env\\lib\\site-packages\\docutils\\parsers\\rst\\include\\isoamsr.txt',
   'DATA'),
  ('kivy_install\\modules\\touchring.py',
   'c:\\users\\jvalero\\documents\\env\\lib\\site-packages\\kivy\\modules\\touchring.py',
   'DATA'),
  ('cryptography-2.6.1-py3.7.egg-info\\RECORD',
   'c:\\users\\jvalero\\documents\\env\\lib\\site-packages\\cryptography-2.6.1.dist-info\\RECORD',
   'DATA'),
  ('kivy_install\\data\\keyboards\\qwertz.json',
   'c:\\users\\jvalero\\documents\\env\\lib\\site-packages\\kivy\\data\\keyboards\\qwertz.json',
   'DATA'),
  ('kivy_install\\data\\glsl\\default.vs',
   'c:\\users\\jvalero\\documents\\env\\lib\\site-packages\\kivy\\data\\glsl\\default.vs',
   'DATA'),
  ('docutils\\writers\\s5_html\\themes\\default\\slides.js',
   'c:\\users\\jvalero\\documents\\env\\lib\\site-packages\\docutils\\writers\\s5_html\\themes\\default\\slides.js',
   'DATA'),
  ('kivy_install\\modules\\__pycache__\\showborder.cpython-37.pyc',
   'c:\\users\\jvalero\\documents\\env\\lib\\site-packages\\kivy\\modules\\__pycache__\\showborder.cpython-37.pyc',
   'DATA'),
  ('docutils\\writers\\latex2e\\default.tex',
   'c:\\users\\jvalero\\documents\\env\\lib\\site-packages\\docutils\\writers\\latex2e\\default.tex',
   'DATA'),
  ('kivy_install\\modules\\__pycache__\\screen.cpython-37.pyc',
   'c:\\users\\jvalero\\documents\\env\\lib\\site-packages\\kivy\\modules\\__pycache__\\screen.cpython-37.pyc',
   'DATA'),
  ('docutils\\writers\\s5_html\\themes\\medium-white\\framing.css',
   'c:\\users\\jvalero\\documents\\env\\lib\\site-packages\\docutils\\writers\\s5_html\\themes\\medium-white\\framing.css',
   'DATA'),
  ('kivy_install\\data\\images\\cursor.png',
   'c:\\users\\jvalero\\documents\\env\\lib\\site-packages\\kivy\\data\\images\\cursor.png',
   'DATA'),
  ('docutils\\parsers\\rst\\include\\isonum.txt',
   'c:\\users\\jvalero\\documents\\env\\lib\\site-packages\\docutils\\parsers\\rst\\include\\isonum.txt',
   'DATA'),
  ('docutils\\parsers\\rst\\include\\README.txt',
   'c:\\users\\jvalero\\documents\\env\\lib\\site-packages\\docutils\\parsers\\rst\\include\\README.txt',
   'DATA'),
  ('kivy_install\\modules\\__pycache__\\webdebugger.cpython-37.pyc',
   'c:\\users\\jvalero\\documents\\env\\lib\\site-packages\\kivy\\modules\\__pycache__\\webdebugger.cpython-37.pyc',
   'DATA'),
  ('kivy_install\\data\\fonts\\Roboto-Italic.ttf',
   'c:\\users\\jvalero\\documents\\env\\lib\\site-packages\\kivy\\data\\fonts\\Roboto-Italic.ttf',
   'DATA'),
  ('cryptography-2.6.1-py3.7.egg-info\\LICENSE.APACHE',
   'c:\\users\\jvalero\\documents\\env\\lib\\site-packages\\cryptography-2.6.1.dist-info\\LICENSE.APACHE',
   'DATA'),
  ('kivy_install\\data\\fonts\\Roboto-Regular.ttf',
   'c:\\users\\jvalero\\documents\\env\\lib\\site-packages\\kivy\\data\\fonts\\Roboto-Regular.ttf',
   'DATA'),
  ('kivy_install\\modules\\inspector.py',
   'c:\\users\\jvalero\\documents\\env\\lib\\site-packages\\kivy\\modules\\inspector.py',
   'DATA'),
  ('kivy_install\\data\\images\\defaultshape.png',
   'c:\\users\\jvalero\\documents\\env\\lib\\site-packages\\kivy\\data\\images\\defaultshape.png',
   'DATA'),
  ('kivy_install\\modules\\__pycache__\\monitor.cpython-37.pyc',
   'c:\\users\\jvalero\\documents\\env\\lib\\site-packages\\kivy\\modules\\__pycache__\\monitor.cpython-37.pyc',
   'DATA'),
  ('docutils\\parsers\\rst\\include\\mmlextra.txt',
   'c:\\users\\jvalero\\documents\\env\\lib\\site-packages\\docutils\\parsers\\rst\\include\\mmlextra.txt',
   'DATA'),
  ('docutils\\writers\\s5_html\\themes\\default\\opera.css',
   'c:\\users\\jvalero\\documents\\env\\lib\\site-packages\\docutils\\writers\\s5_html\\themes\\default\\opera.css',
   'DATA'),
  ('kivy_install\\data\\fonts\\DejaVuSans.ttf',
   'c:\\users\\jvalero\\documents\\env\\lib\\site-packages\\kivy\\data\\fonts\\DejaVuSans.ttf',
   'DATA'),
  ('docutils\\parsers\\rst\\include\\isoamsc.txt',
   'c:\\users\\jvalero\\documents\\env\\lib\\site-packages\\docutils\\parsers\\rst\\include\\isoamsc.txt',
   'DATA'),
  ('kivy_install\\data\\images\\defaulttheme.atlas',
   'c:\\users\\jvalero\\documents\\env\\lib\\site-packages\\kivy\\data\\images\\defaulttheme.atlas',
   'DATA'),
  ('kivy_install\\data\\logo\\kivy-icon-16.png',
   'c:\\users\\jvalero\\documents\\env\\lib\\site-packages\\kivy\\data\\logo\\kivy-icon-16.png',
   'DATA'),
  ('kivy_install\\modules\\__pycache__\\joycursor.cpython-37.pyc',
   'c:\\users\\jvalero\\documents\\env\\lib\\site-packages\\kivy\\modules\\__pycache__\\joycursor.cpython-37.pyc',
   'DATA'),
  ('cryptography-2.6.1-py3.7.egg-info\\top_level.txt',
   'c:\\users\\jvalero\\documents\\env\\lib\\site-packages\\cryptography-2.6.1.dist-info\\top_level.txt',
   'DATA'),
  ('docutils\\parsers\\rst\\include\\isopub.txt',
   'c:\\users\\jvalero\\documents\\env\\lib\\site-packages\\docutils\\parsers\\rst\\include\\isopub.txt',
   'DATA'),
  ('docutils\\writers\\s5_html\\themes\\default\\framing.css',
   'c:\\users\\jvalero\\documents\\env\\lib\\site-packages\\docutils\\writers\\s5_html\\themes\\default\\framing.css',
   'DATA'),
  ('docutils\\writers\\s5_html\\themes\\default\\slides.css',
   'c:\\users\\jvalero\\documents\\env\\lib\\site-packages\\docutils\\writers\\s5_html\\themes\\default\\slides.css',
   'DATA'),
  ('kivy_install\\modules\\__pycache__\\inspector.cpython-37.pyc',
   'c:\\users\\jvalero\\documents\\env\\lib\\site-packages\\kivy\\modules\\__pycache__\\inspector.cpython-37.pyc',
   'DATA'),
  ('docutils\\parsers\\rst\\include\\xhtml1-symbol.txt',
   'c:\\users\\jvalero\\documents\\env\\lib\\site-packages\\docutils\\parsers\\rst\\include\\xhtml1-symbol.txt',
   'DATA'),
  ('kivy_install\\modules\\__pycache__\\__init__.cpython-37.pyc',
   'c:\\users\\jvalero\\documents\\env\\lib\\site-packages\\kivy\\modules\\__pycache__\\__init__.cpython-37.pyc',
   'DATA'),
  ('docutils\\parsers\\rst\\include\\isomopf-wide.txt',
   'c:\\users\\jvalero\\documents\\env\\lib\\site-packages\\docutils\\parsers\\rst\\include\\isomopf-wide.txt',
   'DATA'),
  ('cryptography-2.6.1-py3.7.egg-info\\LICENSE',
   'c:\\users\\jvalero\\documents\\env\\lib\\site-packages\\cryptography-2.6.1.dist-info\\LICENSE',
   'DATA'),
  ('docutils\\parsers\\rst\\include\\isoamsb.txt',
   'c:\\users\\jvalero\\documents\\env\\lib\\site-packages\\docutils\\parsers\\rst\\include\\isoamsb.txt',
   'DATA'),
  ('docutils\\writers\\s5_html\\themes\\big-black\\__base__',
   'c:\\users\\jvalero\\documents\\env\\lib\\site-packages\\docutils\\writers\\s5_html\\themes\\big-black\\__base__',
   'DATA'),
  ('kivy_install\\modules\\_webdebugger.py',
   'c:\\users\\jvalero\\documents\\env\\lib\\site-packages\\kivy\\modules\\_webdebugger.py',
   'DATA'),
  ('docutils\\parsers\\rst\\include\\isogrk4.txt',
   'c:\\users\\jvalero\\documents\\env\\lib\\site-packages\\docutils\\parsers\\rst\\include\\isogrk4.txt',
   'DATA'),
  ('docutils\\parsers\\rst\\include\\isolat2.txt',
   'c:\\users\\jvalero\\documents\\env\\lib\\site-packages\\docutils\\parsers\\rst\\include\\isolat2.txt',
   'DATA'),
  ('docutils\\parsers\\rst\\include\\isomfrk.txt',
   'c:\\users\\jvalero\\documents\\env\\lib\\site-packages\\docutils\\parsers\\rst\\include\\isomfrk.txt',
   'DATA'),
  ('docutils\\writers\\s5_html\\themes\\medium-black\\__base__',
   'c:\\users\\jvalero\\documents\\env\\lib\\site-packages\\docutils\\writers\\s5_html\\themes\\medium-black\\__base__',
   'DATA'),
  ('docutils\\parsers\\rst\\include\\isogrk3.txt',
   'c:\\users\\jvalero\\documents\\env\\lib\\site-packages\\docutils\\parsers\\rst\\include\\isogrk3.txt',
   'DATA'),
  ('kivy_install\\modules\\__pycache__\\cursor.cpython-37.pyc',
   'c:\\users\\jvalero\\documents\\env\\lib\\site-packages\\kivy\\modules\\__pycache__\\cursor.cpython-37.pyc',
   'DATA'),
  ('kivy_install\\modules\\__pycache__\\keybinding.cpython-37.pyc',
   'c:\\users\\jvalero\\documents\\env\\lib\\site-packages\\kivy\\modules\\__pycache__\\keybinding.cpython-37.pyc',
   'DATA'),
  ('kivy_install\\data\\keyboards\\qwerty.json',
   'c:\\users\\jvalero\\documents\\env\\lib\\site-packages\\kivy\\data\\keyboards\\qwerty.json',
   'DATA'),
  ('docutils\\writers\\s5_html\\themes\\default\\blank.gif',
   'c:\\users\\jvalero\\documents\\env\\lib\\site-packages\\docutils\\writers\\s5_html\\themes\\default\\blank.gif',
   'DATA'),
  ('docutils\\writers\\s5_html\\themes\\default\\s5-core.css',
   'c:\\users\\jvalero\\documents\\env\\lib\\site-packages\\docutils\\writers\\s5_html\\themes\\default\\s5-core.css',
   'DATA'),
  ('kivy_install\\data\\glsl\\header.fs',
   'c:\\users\\jvalero\\documents\\env\\lib\\site-packages\\kivy\\data\\glsl\\header.fs',
   'DATA'),
  ('docutils\\writers\\latex2e\\titlepage.tex',
   'c:\\users\\jvalero\\documents\\env\\lib\\site-packages\\docutils\\writers\\latex2e\\titlepage.tex',
   'DATA'),
  ('kivy_install\\modules\\cursor.py',
   'c:\\users\\jvalero\\documents\\env\\lib\\site-packages\\kivy\\modules\\cursor.py',
   'DATA'),
  ('docutils\\writers\\html5_polyglot\\plain.css',
   'c:\\users\\jvalero\\documents\\env\\lib\\site-packages\\docutils\\writers\\html5_polyglot\\plain.css',
   'DATA'),
  ('docutils\\parsers\\rst\\include\\isoamsa.txt',
   'c:\\users\\jvalero\\documents\\env\\lib\\site-packages\\docutils\\parsers\\rst\\include\\isoamsa.txt',
   'DATA'),
  ('kivy_install\\data\\logo\\kivy-icon-24.png',
   'c:\\users\\jvalero\\documents\\env\\lib\\site-packages\\kivy\\data\\logo\\kivy-icon-24.png',
   'DATA'),
  ('main.exe.manifest',
   'C:\\Users\\jvalero\\Documents\\sinapsisapp\\build\\main\\main.exe.manifest',
   'BINARY'),
  ('pyi-windows-manifest-filename main.exe.manifest', '', 'OPTION')],
 [],
 False,
 False,
 1563392765,
 [('runw.exe',
   'c:\\users\\jvalero\\documents\\env\\lib\\site-packages\\PyInstaller\\bootloader\\Windows-32bit\\runw.exe',
   'EXECUTABLE')])
